<?xml version="1.0" encoding="UTF-8" standalone="no"?>
<svg width="15px" height="15px" viewBox="0 0 15 15" version="1.1" xmlns="http://www.w3.org/2000/svg" xmlns:xlink="http://www.w3.org/1999/xlink" xmlns:sketch="http://www.bohemiancoding.com/sketch/ns">
    <!-- Generator: Sketch 3.4 (15588) - http://www.bohemiancoding.com/sketch -->
    <title>cancel-red-circle copy 2</title>
    <desc>Created with Sketch.</desc>
    <defs></defs>
    <g id="Desktop" stroke="none" stroke-width="1" fill="none" fill-rule="evenodd" sketch:type="MSPage">
        <g id="Add-Resource-Desktop" sketch:type="MSArtboardGroup" transform="translate(-602.000000, -698.000000)">
            <g id="filters" sketch:type="MSLayerGroup" transform="translate(292.000000, 168.000000)">
                <g id="Photos" transform="translate(4.000000, 510.654984)" sketch:type="MSShapeGroup">
                    <g id="cancel-red-circle-copy-2" transform="translate(306.000000, 19.345016)">
                        <ellipse id="Oval-277" fill="#FFFFFF" cx="7.74695864" cy="7.74653465" rx="4.84184915" ry="4.84158416"></ellipse>
                        <path d="M7.26277372,14.5247525 C11.2738929,14.5247525 14.5255474,11.2732759 14.5255474,7.26237624 C14.5255474,3.25147659 11.2738929,0 7.26277372,0 C3.25165455,0 0,3.25147659 0,7.26237624 C0,11.2732759 3.25165455,14.5247525 7.26277372,14.5247525 Z M8.33680691,7.30929555 L10.0468647,5.59933137 C10.3338092,5.31240251 10.3322881,4.85409539 10.0486591,4.57048196 C9.76305273,4.28489122 9.30437335,4.28767187 9.01975337,4.57227627 L7.3096956,6.28224045 L5.59963784,4.57227627 C5.31269327,4.28534741 4.85436106,4.28686852 4.57073211,4.57048196 C4.28512574,4.85607269 4.28790654,5.31472696 4.57252653,5.59933137 L6.28258429,7.30929555 L4.57252653,9.01925973 C4.28558196,9.30618859 4.28710315,9.76449571 4.57073211,10.0481091 C4.85633847,10.3336999 5.31501785,10.3309192 5.59963784,10.0463148 L7.3096956,8.33635065 L9.01975337,10.0463148 C9.30669793,10.3332437 9.76503014,10.3317226 10.0486591,10.0481091 C10.3342655,9.76251841 10.3314847,9.30386413 10.0468647,9.01925973 L8.33680691,7.30929555 Z" id="Oval-588" fill="#D33333"></path>
                    </g>
                </g>
            </g>
        </g>
    </g>
</svg>