<?xml version="1.0" encoding="utf-8"?>
<!-- Generator: Adobe Illustrator 19.1.0, SVG Export Plug-In . SVG Version: 6.00 Build 0)  -->
<svg version="1.0" id="Layer_1" xmlns="http://www.w3.org/2000/svg" xmlns:xlink="http://www.w3.org/1999/xlink" x="0px" y="0px"
	 viewBox="0 0 42 30" enable-background="new 0 0 42 30" xml:space="preserve">
<g>
	<defs>
		<path id="SVGID_1_" d="M37.2-100.8l-5.6,0.1c0,0-0.1,0-0.1,0c0,0-0.1,0-0.1,0c0,0-0.1,0-0.1,0c0,0,0,0-0.1,0c0,0-0.1,0-0.1,0.1
			c0,0,0,0-0.1,0c0,0-0.1,0-0.1,0.1c0,0,0,0-0.1,0.1c0,0,0,0-0.1,0.1c0,0,0,0.1-0.1,0.1c0,0,0,0,0,0.1c0,0,0,0.1-0.1,0.1
			c0,0,0,0.1,0,0.1c0,0,0,0.1,0,0.1c0,0,0,0.1,0,0.1c0,0,0,0.1,0,0.1l-0.1,5.6c0,0.6,0.4,1,1,1c0,0,0,0,0,0c0.6,0,1-0.4,1-1l0.1-3.2
			c1.9,2.7,2.6,6.1,1.8,9.5c-1.3,6-6.8,10.3-12.7,10.3c-0.7,0-1.4-0.1-2.1-0.2c-0.6-0.1-1.1,0.3-1.2,0.8c-0.1,0.6,0.3,1.1,0.8,1.2
			c0.8,0.1,1.7,0.2,2.5,0.2c6.8,0,13.1-4.9,14.7-11.9c0.9-4.1,0-8.3-2.4-11.5l3.3-0.1c0.6,0,1-0.5,1-1
			C38.2-100.4,37.7-100.8,37.2-100.8"/>
	</defs>
	<clipPath id="SVGID_2_">
		<use xlink:href="#SVGID_1_"  overflow="visible"/>
	</clipPath>
	<g clip-path="url(#SVGID_2_)">
		<defs>
			<rect id="SVGID_3_" x="-125.1" y="-277.7" width="1451.4" height="1032.1"/>
		</defs>
		<clipPath id="SVGID_4_">
			<use xlink:href="#SVGID_3_"  overflow="visible"/>
		</clipPath>
	</g>
</g>
<g>
	<defs>
		<path id="SVGID_5_" d="M11.9-87.7c-0.6,0-1,0.4-1,1l-0.1,3.2C8.9-86.2,8.2-89.6,9-93c1.5-6.7,8.1-11.3,14.8-10.1
			c0.6,0.1,1.1-0.3,1.2-0.8c0.1-0.6-0.3-1.1-0.8-1.2c-7.7-1.4-15.4,3.9-17.2,11.7C6.1-89.4,7-85.2,9.4-82l-3.3,0.1c-0.6,0-1,0.5-1,1
			c0,0.6,0.5,1,1,1c0,0,0,0,0,0l5.6-0.1c0,0,0.1,0,0.1,0c0,0,0.1,0,0.1,0c0,0,0.1,0,0.1,0c0,0,0.1,0,0.1,0c0,0,0.1,0,0.1,0
			c0,0,0.1,0,0.1,0c0,0,0,0,0.1-0.1c0,0,0.1,0,0.1-0.1c0,0,0,0,0.1-0.1c0,0,0-0.1,0.1-0.1c0,0,0-0.1,0-0.1c0,0,0-0.1,0-0.1
			c0,0,0-0.1,0-0.1c0,0,0-0.1,0-0.1c0,0,0-0.1,0-0.1c0,0,0-0.1,0-0.1l0.1-5.6C12.9-87.2,12.5-87.6,11.9-87.7"/>
	</defs>
	<clipPath id="SVGID_6_">
		<use xlink:href="#SVGID_5_"  overflow="visible"/>
	</clipPath>
	<g clip-path="url(#SVGID_6_)">
		<defs>
			<rect id="SVGID_7_" x="-125.1" y="-277.7" width="1451.4" height="1032.1"/>
		</defs>
		<clipPath id="SVGID_8_">
			<use xlink:href="#SVGID_7_"  overflow="visible"/>
		</clipPath>
	</g>
</g>
<g>
	<defs>
		<path id="SVGID_9_" d="M89.7-161.5c-2.4,0-4.4-2-4.4-4.4s2-4.4,4.4-4.4c2.4,0,4.4,2,4.4,4.4S92.1-161.5,89.7-161.5z M100.8-166
			C100.8-166,100.8-166,100.8-166c0-0.1,0-0.1,0-0.1c0,0,0,0,0,0c0,0,0,0,0,0l0,0c-0.1-0.3-3.3-7.8-11.1-7.8
			c-7.9,0-10.8,7.7-10.8,7.8c0,0,0,0,0,0c0,0,0,0,0,0.1c0,0,0,0,0,0.1c0,0,0,0,0,0.1s0,0,0,0.1c0,0,0,0,0,0.1c0,0,0,0,0,0.1
			c0,0,0,0,0,0c0,0.1,2.9,7.8,10.8,7.8c7.8,0,10.9-7.5,11.1-7.8c0,0,0,0,0,0c0,0,0,0,0,0c0,0,0,0,0,0c0,0,0,0,0-0.1c0,0,0,0,0-0.1
			C100.8-165.9,100.8-165.9,100.8-166C100.8-166,100.8-166,100.8-166z"/>
	</defs>
	<clipPath id="SVGID_10_">
		<use xlink:href="#SVGID_9_"  overflow="visible"/>
	</clipPath>
	<g clip-path="url(#SVGID_10_)">
		<defs>
			<rect id="SVGID_11_" x="-896.2" y="-731.8" width="1280" height="1180.2"/>
		</defs>
		<clipPath id="SVGID_12_">
			<use xlink:href="#SVGID_11_"  overflow="visible"/>
		</clipPath>
	</g>
</g>
<g>
	<path fill="#90C8ED" d="M21.7,0c-0.5,0-0.8,0.4-0.8,0.8v13.4c0,0.5,0.4,0.8,0.8,0.8h13.4c0.5,0,0.8-0.4,0.8-0.8
		C36,6.4,29.6,0,21.7,0z M22.6,13.4V1.7c6.3,0.4,11.3,5.5,11.7,11.7H22.6z"/>
	<path fill="#90C8ED" d="M30.7,16.4h-10c-0.6,0-1-0.4-1-1V5.3c0-0.5-0.4-0.8-0.8-0.8C11.7,4.5,6,10.2,6,17.2S11.7,30,18.8,30
		s12.8-5.7,12.8-12.8C31.5,16.8,31.1,16.4,30.7,16.4z M18.8,28.3c-6.1,0-11.1-5-11.1-11.1c0-5.8,4.5-10.6,10.2-11.1v9.2
		c0,1.5,1.2,2.7,2.7,2.7h9.2C29.4,23.8,24.6,28.3,18.8,28.3z"/>
</g>
</svg>
