<?xml version="1.0" encoding="utf-8"?>
<!-- Generator: Adobe Illustrator 19.1.0, SVG Export Plug-In . SVG Version: 6.00 Build 0)  -->
<svg version="1.0" id="Layer_1" xmlns="http://www.w3.org/2000/svg" xmlns:xlink="http://www.w3.org/1999/xlink" x="0px" y="0px"
	 viewBox="0 0 42 30" enable-background="new 0 0 42 30" xml:space="preserve">
<g>
	<defs>
		<path id="SVGID_1_" d="M-132.8,13.2l-5.6,0.1c0,0-0.1,0-0.1,0c0,0-0.1,0-0.1,0c0,0-0.1,0-0.1,0c0,0,0,0-0.1,0c0,0-0.1,0-0.1,0.1
			c0,0,0,0-0.1,0c0,0-0.1,0-0.1,0.1c0,0,0,0-0.1,0.1c0,0,0,0-0.1,0.1c0,0,0,0.1-0.1,0.1c0,0,0,0,0,0.1c0,0,0,0.1-0.1,0.1
			c0,0,0,0.1,0,0.1c0,0,0,0.1,0,0.1c0,0,0,0.1,0,0.1c0,0,0,0.1,0,0.1l-0.1,5.6c0,0.6,0.4,1,1,1c0,0,0,0,0,0c0.6,0,1-0.4,1-1l0.1-3.2
			c1.9,2.7,2.6,6.1,1.8,9.5c-1.3,6-6.8,10.3-12.7,10.3c-0.7,0-1.4-0.1-2.1-0.2c-0.6-0.1-1.1,0.3-1.2,0.8c-0.1,0.6,0.3,1.1,0.8,1.2
			c0.8,0.1,1.7,0.2,2.5,0.2c6.8,0,13.1-4.9,14.7-11.9c0.9-4.1,0-8.3-2.4-11.5l3.3-0.1c0.6,0,1-0.5,1-1
			C-131.8,13.6-132.2,13.2-132.8,13.2"/>
	</defs>
	<clipPath id="SVGID_2_">
		<use xlink:href="#SVGID_1_"  overflow="visible"/>
	</clipPath>
	<g clip-path="url(#SVGID_2_)">
		<defs>
			<rect id="SVGID_3_" x="-295.1" y="-163.7" width="1451.4" height="1032.1"/>
		</defs>
		<clipPath id="SVGID_4_">
			<use xlink:href="#SVGID_3_"  overflow="visible"/>
		</clipPath>
	</g>
</g>
<g>
	<defs>
		<path id="SVGID_5_" d="M-158,26.3c-0.6,0-1,0.4-1,1l-0.1,3.2c-1.9-2.7-2.6-6.1-1.8-9.5c1.5-6.7,8.1-11.3,14.8-10.1
			c0.6,0.1,1.1-0.3,1.2-0.8c0.1-0.6-0.3-1.1-0.8-1.2c-7.7-1.4-15.4,3.9-17.2,11.7c-0.9,4.1,0,8.3,2.4,11.5l-3.3,0.1
			c-0.6,0-1,0.5-1,1c0,0.6,0.5,1,1,1c0,0,0,0,0,0l5.6-0.1c0,0,0.1,0,0.1,0c0,0,0.1,0,0.1,0c0,0,0.1,0,0.1,0c0,0,0.1,0,0.1,0
			c0,0,0.1,0,0.1,0c0,0,0.1,0,0.1,0c0,0,0,0,0.1-0.1c0,0,0.1,0,0.1-0.1c0,0,0,0,0.1-0.1c0,0,0-0.1,0.1-0.1c0,0,0-0.1,0-0.1
			c0,0,0-0.1,0-0.1c0,0,0-0.1,0-0.1c0,0,0-0.1,0-0.1c0,0,0-0.1,0-0.1c0,0,0-0.1,0-0.1l0.1-5.6C-157,26.8-157.5,26.4-158,26.3"/>
	</defs>
	<clipPath id="SVGID_6_">
		<use xlink:href="#SVGID_5_"  overflow="visible"/>
	</clipPath>
	<g clip-path="url(#SVGID_6_)">
		<defs>
			<rect id="SVGID_7_" x="-295.1" y="-163.7" width="1451.4" height="1032.1"/>
		</defs>
		<clipPath id="SVGID_8_">
			<use xlink:href="#SVGID_7_"  overflow="visible"/>
		</clipPath>
	</g>
</g>
<g>
	<defs>
		<path id="SVGID_9_" d="M-80.3-47.5c-2.4,0-4.4-2-4.4-4.4s2-4.4,4.4-4.4c2.4,0,4.4,2,4.4,4.4S-77.9-47.5-80.3-47.5z M-69.2-52
			C-69.2-52-69.2-52-69.2-52c0-0.1,0-0.1,0-0.1c0,0,0,0,0,0c0,0,0,0,0,0l0,0c-0.1-0.3-3.3-7.8-11.1-7.8c-7.9,0-10.8,7.7-10.8,7.8
			c0,0,0,0,0,0c0,0,0,0,0,0.1c0,0,0,0,0,0.1c0,0,0,0,0,0.1s0,0,0,0.1c0,0,0,0,0,0.1c0,0,0,0,0,0.1c0,0,0,0,0,0
			c0,0.1,2.9,7.8,10.8,7.8c7.8,0,10.9-7.5,11.1-7.8c0,0,0,0,0,0c0,0,0,0,0,0c0,0,0,0,0,0c0,0,0,0,0-0.1c0,0,0,0,0-0.1
			C-69.2-51.9-69.2-51.9-69.2-52C-69.2-52-69.2-52-69.2-52z"/>
	</defs>
	<clipPath id="SVGID_10_">
		<use xlink:href="#SVGID_9_"  overflow="visible"/>
	</clipPath>
	<g clip-path="url(#SVGID_10_)">
		<defs>
			<rect id="SVGID_11_" x="-1066.2" y="-617.8" width="1280" height="1180.2"/>
		</defs>
		<clipPath id="SVGID_12_">
			<use xlink:href="#SVGID_11_"  overflow="visible"/>
		</clipPath>
	</g>
</g>
<g>
	<path fill="#FFFFFF" d="M35,4.3h-5.7V3.2c0-1.8-1.5-3.4-3.4-3.4h-8.7c-1.8,0-3.4,1.5-3.4,3.4v1.1H8c-2.2,0-4,1.8-4,4v17.5
		c0,2.2,1.8,4,4,4h27c2.2,0,4-1.8,4-4V8.3C39,6.1,37.2,4.3,35,4.3z M15.8,3.2c0-0.8,0.6-1.4,1.4-1.4h8.7c0.8,0,1.4,0.6,1.4,1.4v1.1
		H15.8V3.2z M37,25.8c0,1.1-0.9,2.1-2.1,2.1H8C6.9,27.9,6,27,6,25.8V8.3C6,7.2,6.9,6.3,8,6.3h27c1.1,0,2.1,0.9,2.1,2.1V25.8z"/>
	<path fill="#FFFFFF" d="M21.5,8.6c-4.9,0-8.8,4-8.8,8.8s4,8.8,8.8,8.8s8.8-4,8.8-8.8S26.4,8.6,21.5,8.6z M21.5,24.4
		c-3.8,0-6.9-3.1-6.9-6.9s3.1-6.9,6.9-6.9s6.9,3.1,6.9,6.9S25.3,24.4,21.5,24.4z"/>
	<path fill="#FFFFFF" d="M34.1,8.2h-3.9c-0.5,0-1,0.4-1,1s0.4,1,1,1h3.9c0.5,0,1-0.4,1-1S34.6,8.2,34.1,8.2z"/>
</g>
</svg>
