<?xml version="1.0" encoding="utf-8"?>
<!-- Generator: Adobe Illustrator 19.1.0, SVG Export Plug-In . SVG Version: 6.00 Build 0)  -->
<svg version="1.0" id="Layer_1" xmlns="http://www.w3.org/2000/svg" xmlns:xlink="http://www.w3.org/1999/xlink" x="0px" y="0px"
	 viewBox="0 0 24 24" enable-background="new 0 0 24 24" xml:space="preserve">
<path d="M19.2,9l-1,12.5c0,0.5-0.5,1-1,1H7c-0.5,0-1-0.5-1-1L4.9,9H19.2 M20.7,7.5H3.4l1,14C4.4,22.9,5.6,24,7,24h10.2
	c1.4,0,2.5-1.1,2.5-2.5L20.7,7.5L20.7,7.5z"/>
<path d="M16.9,2.5l-1-1.9C15.7,0.2,15.4,0,15,0H8.7C8.3,0,8,0.2,7.8,0.6l-1,1.9H3v3.7h17.9V2.5H16.9z M9,1.5h5.6l0.5,1H8.5L9,1.5z
	 M19.4,4.8H4.5V4h14.9V4.8z"/>
</svg>
