<?xml version="1.0" encoding="utf-8"?>
<!-- Generator: Adobe Illustrator 19.1.0, SVG Export Plug-In . SVG Version: 6.00 Build 0)  -->
<svg version="1.1" id="Layer_1" xmlns:sketch="http://www.bohemiancoding.com/sketch/ns"
	 xmlns="http://www.w3.org/2000/svg" xmlns:xlink="http://www.w3.org/1999/xlink" x="0px" y="0px" viewBox="-297 388 16 18"
	 style="enable-background:new -297 388 16 18;" xml:space="preserve">
<style type="text/css">
	.st0{fill:#F55F5F;}
</style>
<title>icn-company-resource</title>
<desc>Created with Sketch.</desc>
<g id="Desktop" sketch:type="MSPage">
	<g id="Asset-Details-Desktop" transform="translate(-803.000000, -538.000000)" sketch:type="MSArtboardGroup">
		<g id="icn-company-resource" transform="translate(803.000000, 538.000000)" sketch:type="MSLayerGroup">
			<path id="Fill-1" sketch:type="MSShapeGroup" class="st0" d="M-295.6,404.7l0.4-3.3l0-0.1c0-0.3,0.3-0.6,0.6-0.6h1.7
				c1.1,1,2.5,1.5,3.9,1.5c1.4,0,2.8-0.5,3.9-1.5h1.7c0.3,0,0.6,0.3,0.6,0.6l0.4,3.4H-295.6z M-281.5,401.3c0-1-0.9-1.8-1.9-1.8
				h-2.2l-0.2,0.2c-0.9,0.8-2,1.3-3.2,1.3c-1.2,0-2.3-0.5-3.2-1.3l-0.2-0.2h-2.2c-1,0-1.9,0.8-1.9,1.8l-0.5,3.7l0,0.1
				c0,0.5,0.4,0.9,0.9,0.9h14.2c0.5,0,0.9-0.4,0.9-0.9L-281.5,401.3z"/>
			<path id="Fill-3" sketch:type="MSShapeGroup" class="st0" d="M-289.6,390.7v2.1c0,0.4,0.3,0.6,0.7,0.6s0.7-0.3,0.7-0.6v-2.1
				c2.1,0.3,2.6,1.8,2.9,3.9h-7.2C-292.3,392.5-291.8,391-289.6,390.7 M-289,399.1c-1.5,0-2.7-1.4-2.9-3.2h5.8
				C-286.3,397.7-287.5,399.1-289,399.1 M-294.3,395.9h0.7c0.1,0.1,0.3,0.1,0.4,0.1c0.2,2.5,2,4.4,4.2,4.4c2.2,0,4-2,4.2-4.5h1.1
				c0.4,0,0.7-0.3,0.7-0.6c0-0.4-0.3-0.6-0.7-0.6h-0.4c-0.3-1.9-0.8-4.9-4.3-5.2v-0.7c0-0.4-0.3-0.6-0.7-0.6s-0.7,0.3-0.7,0.6v0.7
				c-3.5,0.3-4,3.3-4.2,5.2h-0.4c-0.4,0-0.7,0.3-0.7,0.6C-295,395.6-294.7,395.9-294.3,395.9"/>
		</g>
	</g>
</g>
</svg>
