<?xml version="1.0" encoding="utf-8"?>
<!-- Generator: Adobe Illustrator 19.1.0, SVG Export Plug-In . SVG Version: 6.00 Build 0)  -->
<svg version="1.1" id="Layer_1" xmlns:sketch="http://www.bohemiancoding.com/sketch/ns"
	 xmlns="http://www.w3.org/2000/svg" xmlns:xlink="http://www.w3.org/1999/xlink" x="0px" y="0px" viewBox="-291 386 29 22"
	 style="enable-background:new -291 386 29 22;" xml:space="preserve">
<style type="text/css">
	.st0{filter:url(#Adobe_OpacityMaskFilter);}
	.st1{fill:#FFFFFF;}
	.st2{mask:url(#mask-2);fill:#3B98DF;}
</style>
<title>Share-Icon</title>
<desc>Created with Sketch.</desc>
<g id="Desktop" sketch:type="MSPage">
	<g id="Asset-Details-Desktop" transform="translate(-1120.000000, -396.000000)" sketch:type="MSArtboardGroup">
		<g id="Share-Icon" transform="translate(1120.000000, 396.000000)" sketch:type="MSLayerGroup">
			<g id="Clip-2">
			</g>
			<defs>
				<filter id="Adobe_OpacityMaskFilter" filterUnits="userSpaceOnUse" x="-290.8" y="386.1" width="28.7" height="21.7">
					<feColorMatrix  type="matrix" values="1 0 0 0 0  0 1 0 0 0  0 0 1 0 0  0 0 0 1 0"/>
				</filter>
			</defs>
			<mask maskUnits="userSpaceOnUse" x="-290.8" y="386.1" width="28.7" height="21.7" id="mask-2">
				<g class="st0">
					<path id="path-1" class="st1" d="M-290.8,386.1h28.7v21.7h-28.7V386.1z"/>
				</g>
			</mask>
			<path id="Fill-1" sketch:type="MSShapeGroup" class="st2" d="M-276.5,401.9l11.9-11.9v-1.4h-23.8v1.4L-276.5,401.9z
				 M-264.6,405.4v-12l-10.3,10.3c-0.4,0.4-1,0.6-1.6,0.6c-0.6,0-1.1-0.2-1.6-0.6l-10.3-10.3v12H-264.6z M-288.9,407.9
				c-1.1,0-2-0.9-2-2v-17.8c0-1.1,0.9-2,2-2h24.7c1.1,0,2,0.9,2,2v17.8c0,1.1-0.9,2-2,2H-288.9z"/>
		</g>
	</g>
</g>
</svg>
